{
  "type": "service_account",
  "project_id": "cce-portalweb",
  "private_key_id": "bde83ee2b58c1492a231fd5333aa4089106ddb24",
  "private_key": "-----BEGIN PRIVATE KEY-----\nMIIEvgIBADANBgkqhkiG9w0BAQEFAASCBKgwggSkAgEAAoIBAQCpd2bRN52A4vik\nd6IeB3GynpOZbvSzI8EpEpOv4oHEyb/Kt3x+v5wuE6Mh2DLk+JAH7Yihu++nlRLY\ndv4uG9FJfVUqlcuHpXFXi318UoXCfZkjMYxIAMv6q+XlNEvEBr+olZgTvY7KGN8T\npMGQqEOKQ0de/rX53wnOIIgC6bh23AC7tYj/WXtvEFCFOI6Bxu0px6+s7J0IKBtO\neSJFp6ck2XoklPKLdIXAnkt+WE22/VstX47JMmlLLxcVF4TRwTqj/1uK6JVg/yG2\ngK3Y9G6eg/yq4DM+XzAIguUBWWfijOjlhhxPaU5b3uEiYj/e4vxmI2hVw4cnmg5h\n8ezA05xjAgMBAAECggEBAKV3Vkb13K3Z8Bj2Tq6vag6T014+/mJjiNkHsHhN25M/\nwiq3GbHQeThsKB6FsLvtDwUOoxf4HrosTmhZVznCI4lz/NJFzKK3oYFvS6k2EjCi\n3gGFAYnUbVZmvWQcudW/GSgMWJ79uQwPWNEfT3hlMv0vT+KrJRfC9Rn0nZjqiBhU\nhOoVa7jzuqglihLThvS5G6tZl6KKN3Pnk3wW8Hox4FEha9hTNLdtjgiOD9WkgaqN\nVTc93h+xI01+x8XMWtT/EaPl3rzrg+aqVgJUcNGe/3g9NOQqgmnDvFB3g6vrktvn\nUsZyvuYy9xM6M9IbnQiEpvV51MAv7gnnBpaf53BtEjECgYEA1aQJfhJDmm+ZZxmC\n2M3frzA8ZAH0ncjfq0uCkxVDEPgDFBoL8IZYRCDzDLjCI7EVh0VhvZNedMDoO0ZA\nfVSPScySmlpQ0gnwNVLhVarMiuocs4nSAFgEs7DTGjhRjimy6mtsRzi2UBpv5de7\nSLfuOnbp9CV+Hds2h3ccBmXVER0CgYEAyxEqakqhWapOcMrcvaGIO9ITsF79TUp4\n+8t07cZ4kE5jRdApb9GOpwHR48I/qlfHQ3s55KWl++w6Tr5daGD3kbHcZL+Kyiwj\nfe3h2rA9qh1gjVWT/EQkvbIoUoloYefLTRDvNE7J2wygzyfNEBVi+AfI/MUTXt+Z\nejybOfWNa38CgYBOR12HCRAmLQ/rO+i6oax9F1J5XlIP4kM6E1/Tnq3FMOqH2gdX\n6RG8XMpRdf0EcOUvfFeUy8OHSguNdG86vNoHs2JgFgmY/DU8hJK1/fAWUjOUAUKm\nB5opcPfYmpwfV94LkLLK4dfDP/ySHdqsiWBLobiVUYuFSwYO2rC1E2jfbQKBgQCF\nRFSzwRq2/7/O4jOP9+yyZaIqQ4y1JsTTaqjoSzJgcjFQZdZr3flivR0D/j1OC6Fo\nNfy+g7+030k82E3w7IJNCY78R4BMQj9gq7dnj/ZIKFNvLdSa4BXEsKEp2ae5aSfR\nAeYaTALJUTZP/Wzku0RiRqmuyZ92ygOtZwzwMqiG/QKBgG4ixPxVdimDDIeoc36u\nGk9FfTwWy6D1KK9F5ElwXG5NmOe1ZxmXKXbHiM7ylvY6+5NoSpiOxd1bUsjYCqDF\nEjBtMN400eLDXQWjzRQT7KoY4BAFd/Qt5XwVasEcQHl5bLUQqbOwAZxoTg+zXAtX\nJAcajHpkF3fhNE4TMOMcE+/o\n-----END PRIVATE KEY-----\n",
  "client_email": "cce-portalweb@cce-portalweb.iam.gserviceaccount.com",
  "client_id": "104320095409086576251",
  "auth_uri": "https://accounts.google.com/o/oauth2/auth",
  "token_uri": "https://accounts.google.com/o/oauth2/token",
  "auth_provider_x509_cert_url": "https://www.googleapis.com/oauth2/v1/certs",
  "client_x509_cert_url": "https://www.googleapis.com/robot/v1/metadata/x509/cce-portalweb%40cce-portalweb.iam.gserviceaccount.com"
}
